{
  "originUrl": "",
  "outDir": "./src/api",
  "templatePath": "./serviceTemplate",
  "usingMultipleOrigins": true,
  "origins": [
    {
      "name": "emas",
      "originUrl": "http://127.0.0.1:8888/v2/api-docs"
    }
  ]
}